Visual Analytics - Take Home Exercise 2
…
MC2_graph_abnormal <- tbl_graph(nodes = MC2_node_abnormal,
                       edges = MC2_edge_irregular)

MC2_graph_abnormal

# A tbl_graph: 115 nodes and 153 edges
#
# A directed acyclic multigraph with 1 component
#
# A tibble: 115 × 1
  id                                 
  <chr>                              
1 Asiotr GmbH & Co. KG               
2 Brisa del Mar GmbH                 
3 Coral del Sur Sagl Family          
4 Ocean Explorers GmbH & Co. KG Cargo
5 Omo River  N.V. Carriers           
6 Wise Ltd. Liability Co Abalone     
# ℹ 109 more rows
#
# A tibble: 153 × 4
   from    to Year  Weight
  <int> <int> <fct>  <int>
1     1     8 2034       2
2     1     9 2033       2
3     1    10 2028     254
# ℹ 150 more rows
…
Interactive network plot

Show the code

MC2_edge_regu <- MC2_edges %>%
  filter(source == "Fresh Limited Liability Company") %>%
  group_by(source, target) %>%
  summarize(.groups = "drop") %>%
  rename(from = source) %>%
  rename(to = target)

MC2_edge_regu

# A tibble: 4,028 × 2
   from                            to                                          
   <chr>                           <chr>                                       
 1 Fresh Limited Liability Company " Direct Limited Liability Company"         
 2 Fresh Limited Liability Company " Direct Limited Liability Company Shipping"
 3 Fresh Limited Liability Company "-100"                                      
 4 Fresh Limited Liability Company "-10355"                                    
 5 Fresh Limited Liability Company "-10548"                                    
 6 Fresh Limited Liability Company "-10551"                                    
 7 Fresh Limited Liability Company "-10552"                                    
 8 Fresh Limited Liability Company "-10573"                                    
 9 Fresh Limited Liability Company "-10574"                                    
10 Fresh Limited Liability Company "-10577"                                    
# ℹ 4,018 more rows
…
Build an tidygraph’s network graph data.frame, arrange Year in edges by ascending order.

Show the code

MC2_graph <- tbl_graph(nodes = MC2_node_drop,
                       edges = MC2_edges_aggregated)

MC2_graph

# A tbl_graph: 34576 nodes and 478439 edges
#
# A directed multigraph with 1 component
#
# A tibble: 34,576 × 2
     id label                            
  <int> <chr>                            
1     1 AquaDelight Inc and Son's        
2     2 BaringoAmerica Marine Ges.m.b.H. 
3     3 Yu gan  Sea spray GmbH Industrial
4     4 FlounderLeska Marine BV          
5     5 Olas del Mar Worldwide           
6     6 French Crab S.p.A. Worldwide     
# ℹ 34,570 more rows
#
# A tibble: 478,439 × 4
   from    to Year  Weight
  <int> <int> <fct>  <int>
1     1     2 2034       2
2     1     5 2028       1
3     1     9 2030       1
# ℹ 478,436 more rows
…
# Filter nodes based on IDs
MC2_node_filter <- MC2_node_drop %>%
  filter(id %in% edge_nodes)

Show the code

graph <- igraph::graph_from_data_frame(MC2_edges_weight, vertices = MC2_node_filter) %>% as_tbl_graph()
graph

# A tbl_graph: 583 nodes and 1887 edges
#
# A directed multigraph with 61 components
#
# A tibble: 583 × 2
  name  label                            
  <chr> <chr>                            
1 3     Yu gan  Sea spray GmbH Industrial
2 5     Olas del Mar Worldwide           
3 6     French Crab S.p.A. Worldwide     
4 8     Panope Limited Liability Company 
5 9     hǎi dǎn Corporation Wharf        
6 11    Sea Breezes GmbH & Co. KG Shark  
# ℹ 577 more rows
#
# A tibble: 1,887 × 4
   from    to Year  Weight
  <int> <int> <chr>  <int>
1     3     4 2028     931
2     3     4 2029     493
3     3     5 2028     335
# ℹ 1,884 more rows
…
